<?xml version="1.0" encoding="utf-8"?>
<!-- Generator: Adobe Illustrator 21.0.1, SVG Export Plug-In . SVG Version: 6.00 Build 0)  -->
<svg width="40px" height="40px"  version="1.1" id="Слой_1" xmlns="http://www.w3.org/2000/svg" xmlns:xlink="http://www.w3.org/1999/xlink" x="0px" y="0px"
	 viewBox="0 0 545.9 545.9" style="enable-background:new 0 0 545.9 545.9;" xml:space="preserve">
<style type="text/css">
	.st0{fill:#D48069;}
	.st1{fill:#FFFFFF;}
</style>
<rect class="st0" width="545.9" height="545.9"/>
<g id="_x36_">
	<path class="st1" d="M132.6,338.4c0,5.2,4.2,9.4,9.4,9.4h262.5c5.2,0,9.4-4.2,9.4-9.4c0-68.7-49.8-126-115.4-138
		c1.6-3.6,2.6-7.5,2.6-11.7c0-15.5-12.6-28.1-28.1-28.1s-28.1,12.6-28.1,28.1c0,4.2,0.9,8.1,2.6,11.7
		C182.6,212.3,132.6,269.1,132.6,338.4z M263.6,188.8c0-5.2,4.2-9.4,9.4-9.4s9.4,4.2,9.4,9.4s-4.2,9.4-9.4,9.4
		S263.6,193.9,263.6,188.8z M272.9,216.8c64.2,0,117.1,49.6,121.9,112.3H151.7C156.5,266.4,209,216.8,272.9,216.8z"/>
	<path class="st1" d="M423.2,366.5H122.7c-5.2,0-9.4,4.2-9.4,9.4s4.2,9.4,9.4,9.4h300.6c5.2,0,9.4-4.2,9.4-9.4
		S428.4,366.5,423.2,366.5z"/>
</g>
</svg>
