<?xml version="1.0" encoding="utf-8"?>
<!-- Generator: Adobe Illustrator 21.0.1, SVG Export Plug-In . SVG Version: 6.00 Build 0)  -->
<svg version="1.1" id="Capa_1" xmlns="http://www.w3.org/2000/svg" xmlns:xlink="http://www.w3.org/1999/xlink" x="0px" y="0px"
	 viewBox="0 0 71.9 97.7" width="40px" height="60px" style="enable-background:new 0 0 71.9 97.7;" xml:space="preserve">
<style type="text/css">
	.st0{fill:#FFFFFF;}
</style>
<path d="M36,0C16.1,0,0,16.1,0,36c0,5.2,1.1,10.1,3.1,14.7c9,19.7,26.2,40.5,31.3,46.4c0.4,0.4,0.9,0.7,1.5,0.7s1.1-0.3,1.5-0.7
	c5.1-5.9,22.3-26.7,31.3-46.4c2.1-4.6,3.1-9.5,3.1-14.7C71.9,16.1,55.8,0,36,0z"/>
<g>
	<g>
		<rect x="28.1" y="18.7" class="st0" width="2" height="47.9"/>
		<rect x="35" y="18.7" class="st0" width="2" height="47.9"/>
		<rect x="41.8" y="18.7" class="st0" width="2" height="32.2"/>
	</g>
</g>
</svg>
